digraph main {
    layout = dot;
    start [label="",shape="circle",fillcolor="black",style="filled"]
    isrecent [label="Is the running PowerShell\nrecent enough?",shape="hexagon"]
    hasrecent [label="Is a recent-enough\nPowerShell Core installed?",shape="hexagon"]
    installpwsh [label="Install the current\nPowerShell Core."]
    startpwsh [label="Run the script through\nPowerShell Core."]
    exit [label="Exit the script entirely\nsince it has just been run."]
    break [label="Return from Invoke-WithPwsh\nand continue running the script."]
    stop [label="",shape="doublecircle",fillcolor="black",style="filled"]
    start -> isrecent
    isrecent -> break [label="Yes",color="green"]
    isrecent -> hasrecent [label="No",color="red"]
    hasrecent -> startpwsh [label="Yes",color="green"]
    hasrecent -> installpwsh [label="No",color="red"]
    installpwsh -> startpwsh
    startpwsh -> exit -> stop
    break -> stop
    {rank=same; break; exit}
}